…
There are no empty values in the data set. Lets take a look at the data.

## Data Exploration

    ## # A tibble: 5,000 x 14
    ##       ID   Age Experience Income `ZIP Code` Family CCAvg Education      Mortgage
    ##    <dbl> <dbl>      <dbl>  <dbl>      <dbl> <fct>  <dbl> <fct>             <dbl>
    ##  1     1    25          1     49      91107 Four     1.6 Undergrad             0
    ##  2     2    45         19     34      90089 Three    1.5 Undergrad             0
    ##  3     3    39         15     11      94720 One      1   Undergrad             0
    ##  4     4    35          9    100      94112 One      2.7 Graduate              0
    ##  5     5    35          8     45      91330 Four     1   Graduate              0
    ##  6     6    37         13     29      92121 Four     0.4 Graduate            155
    ##  7     7    53         27     72      91711 Two      1.5 Graduate              0
    ##  8     8    50         24     22      93943 One      0.3 Advanced/Prof~        0
    ##  9     9    35         10     81      90089 Three    0.6 Graduate            104
    ## 10    10    34          9    180      93023 One      8.9 Advanced/Prof~        0
    ## # ... with 4,990 more rows, and 5 more variables: Personal Loan <lgl>,
    ## #   Securities Account <lgl>, CD Account <lgl>, Online <lgl>, CreditCard <lgl>
…
