…
There are no empty values in the data set. Lets take a look at the data.

## Data Exploration

    ## # A tibble: 5,000 x 14
    ##    ID      Age Experience Income `ZIP Code` Family CCAvg Education Mortgage
    ##    <chr> <dbl>      <dbl>  <dbl>      <dbl>  <dbl> <dbl>     <dbl>    <dbl>
    ##  1 1        25          1     49      91107      4   1.6         1        0
    ##  2 2        45         19     34      90089      3   1.5         1        0
    ##  3 3        39         15     11      94720      1   1           1        0
    ##  4 4        35          9    100      94112      1   2.7         2        0
    ##  5 5        35          8     45      91330      4   1           2        0
    ##  6 6        37         13     29      92121      4   0.4         2      155
    ##  7 7        53         27     72      91711      2   1.5         2        0
    ##  8 8        50         24     22      93943      1   0.3         3        0
    ##  9 9        35         10     81      90089      3   0.6         2      104
    ## 10 10       34          9    180      93023      1   8.9         3        0
    ## # ... with 4,990 more rows, and 5 more variables: Personal Loan <lgl>,
    ## #   Securities Account <lgl>, CD Account <lgl>, Online <lgl>, CreditCard <lgl>
…
It appears income is strangely distributed. Accounts holders with family
sizes of 1 and 2 have a much wider range in income levels. This may be
due to couples with double income, so we will have to account for this
effect later.

``` r
# Display mean and sd of Quantitative data, by Zip Code
zip_data <- data %>%
  group_by(`ZIP Code`) %>%
  summarize(across(where(is.double), list(mean = mean, sd = sd)))

zip_data
```

    ## # A tibble: 467 x 11
    ##    `ZIP Code` Age_mean Age_sd Experience_mean Experience_sd Income_mean
    ##         <dbl>    <dbl>  <dbl>           <dbl>         <dbl>       <dbl>
    ##  1       9307     51    NA               25           NA           21  
    ##  2      90005     40.6  11.5             16.4         11.7         66.2
    ##  3      90007     53.8   6.52            29.2          6.21        71.3
    ##  4      90009     49.1  12.9             24.1         13.1         92.4
    ##  5      90011     51    10.5             26.3         10.5         52.7
    ##  6      90016     42    17.0             14.5         13.4         75  
    ##  7      90018     44.2  11.3             19.2         11.0         45.2
    ##  8      90019     42.4  13.6             16.8         12.8        104. 
    ##  9      90024     47.3  10.7             21.9         10.7         70.9
    ## 10      90025     46.3  10.5             20.9         10.6         75.7
    ## # ... with 457 more rows, and 5 more variables: Income_sd <dbl>,
    ## #   CCAvg_mean <dbl>, CCAvg_sd <dbl>, Mortgage_mean <dbl>, Mortgage_sd <dbl>
…
